…
之后，我们查看一下所有的LDL-C数据。

``` r
tmp<-
lis_result_in%>%
  filter(ENGLISH_NAME %in% c("LDL-C"))%>%
  left_join(tmp, by="sid")%>%
  select(empi,ENGLISH_NAME,QUANTITATIVE_RESULT,sampling_time)%>%
  filter(!is.na(empi))

tmp
```

    ## # A tibble: 35 x 4
    ##    empi     ENGLISH_NAME QUANTITATIVE_RESULT sampling_time      
    ##    <chr>    <chr>        <chr>               <dttm>             
    ##  1 32bd69ef LDL-C        1.49                3220-07-10 07:51:27
    ##  2 e28aaed7 LDL-C        1.77                3704-11-07 08:57:55
    ##  3 e28aaed7 LDL-C        1.15                3704-12-28 09:09:18
    ##  4 2fe13316 LDL-C        1.86                3721-08-18 07:52:46
    ##  5 bdf98ea4 LDL-C        2.14                3938-02-27 09:36:16
    ##  6 e28aaed7 LDL-C        1.68                3703-12-24 10:30:38
    ##  7 e28aaed7 LDL-C        2.26                3704-05-09 07:54:29
    ##  8 e22d2bb8 LDL-C        1.88                3303-09-19 07:35:23
    ##  9 2fe13316 LDL-C        4.36                3720-04-09 06:22:17
    ## 10 2fe13316 LDL-C        1.84                3722-01-26 08:09:55
    ## # … with 25 more rows
…
